id,type,status,cost,up,limit,title,explain,unlock_explain,unlock,get,
1,   1,     0,        1000, 1,    1,ナイフ,必要コスト:1000%newline%敵HP30%削る%newline%クールタイム:10分,矢を購入してアンロック,               ,spAttackID=2|cooltime=0|cooltimeMAX=600|itemNum_0=1|itemNum_1=0|itemNum_2=-1,,
2,   1,    -1,        10000, 1,    1,爆弾,必要コスト:10000%newline%敵HP40%削る%newline%クールタイム:10分,ナイフを購入してアンロック,,spAttackID=3|cooltime=0|cooltimeMAX=600|itemNum_1=1|itemNum_2=0|itemNum_3=-1,,
3,   1,    -2,        1000000, 1,    1,ダイナマイト,必要コスト:1000000%newline%敵HP50%削る%newline%クールタイム:10分,ダイナマイトを購入してアンロック,  ,spAttackID=4|cooltime=0|cooltimeMAX=600|itemNum_2=1|itemNum_3=0,,
4,   1,    -2,        100000000, 1,    1,ロケット,必要コスト:10000000%newline%敵HP60%削る%newline%クールタイム:10分,ロケットを購入してアンロック,    ,spAttackID=5|cooltime=0|cooltimeMAX=600|itemNum_3=1,,
5,   1,     0,          0, 1,    1,"","",,,,,
6,   1,     0,          0, 1,    1,"","",,,,,
7,   1,     0,          0, 1,    1,"","",,,,,
8,   1,     0,          0, 1,    1,"","",,,,,
9,   3,     0,         10, 1,   -1,回復カプセル,所持Coin数:%chip%%newline%必要Coin:10%newline%クールタイムを消化する,"",                                              ,cooltime=0,,
10,  3,     0,        100, 1,   -1,注射器,所持Coin数:%chip%%newline%必要Coin:100%newline%生産速度を1.5倍にする,"",                                                  ,prodBoostSpeed=1.5|boostTimer=60,,
0,   1,     1,          0, 1,    1,矢,必要コスト:0%newline%敵HP10%削る%newline%クールタイム:10分,"","",                                 ,spAttackID=1|cooltime=0|cooltimeMAX=600|itemNum_10=1,,
0,   1,     1,          0, 1,    1,矢,必要コスト:0%newline%敵HP10%削る%newline%クールタイム:10分,"","",                                 ,spAttackID=1|cooltime=600|cooltimeMAX=600|itemNum_10=1,,
