id,   status, costInit,costUp,prodInit ,prodUp,limit,title,explain,unlock_explain,unlock,get,
0,     1,        5,2,       1.05,  2,    -1,らいおん|ヒーローらいおん|マント付きらいおん,Lv.%chara_have% Atk.%touchDamage% %newline%何より正義を大事にしている%newline%必要個数:%chara_cost%,"",,charaNum_0+1,,
1,     0,       50,2,       4.905, 2,    -1,うさぎ|ヒーローうさぎ|マント付きうさぎ,Lv.%chara_have% Atk.%charaSpeed_1% %newline%かわいいがやることはひどい%newline%必要個数:%chara_cost%,%chara_title%を1体購入してアンロック,,charaNum_1+1,,
2,    -1,      175,2,      17.168, 2,    -1,めがねさる|ヒーローめがねさる|マント付きめがねさる,Lv.%chara_have% Atk.%charaSpeed_2% %newline%唯一の常識人%newline%必要個数:%chara_cost%,%chara_title%を1体購入してアンロック,,charaNum_2+1,,
3,    -2,      674,2,      66.119, 2,    -1,おこじょ|ヒーローおこじょ|マント付きおこじょ,Lv.%chara_have% Atk.%charaSpeed_3% %newline%掴めない性格%newline%必要個数:%chara_cost%,%chara_title%を1体購入してアンロック,,charaNum_3+1,,
4,    -2,     2580,2,     253.1,   2,    -1,きつね|ヒーローきつね|マント付ききつね,Lv.%chara_have% Atk.%charaSpeed_4% %newline%何も考えていない%newline%必要個数:%chara_cost%,%chara_title%を1体購入してアンロック,,charaNum_4+1,,
5,    -2,    13300,2,    1304.73,  2,    -1,ばんび|ヒーローばんび|マント付きばんび,Lv.%chara_have% Atk.%charaSpeed_5% %newline%常に泣いている%newline%必要個数:%chara_cost%,%chara_title%を1体購入してアンロック,,charaNum_5+1,,
6,    -2,    68100,2,    6680.61,  2,    -1,はりねずみ|ヒーローはりねずみ|マント付きはりねずみ,Lv.%chara_have% Atk.%charaSpeed_6% %newline%普段は温厚%newline%必要個数:%chara_cost%,%chara_title%を1体購入してアンロック,,charaNum_6+1,,
7,    -2,   384000,2,   37670.4,   2,    -1,ほわいとたいがー|ヒーローほわいとたいがー|マント付きほわいとたいがー,Lv.%chara_have% Atk.%charaSpeed_7% %newline%姿は強そうだが見掛け倒し%newline%必要個数:%chara_cost%,%chara_title%を1体購入してアンロック,,charaNum_7+1,,
8,    -2,  2360000,2,  231516,     2,    -1,しろくま|ヒーローしろくま|マント付きしろくま,Lv.%chara_have% Atk.%charaSpeed_8% %newline%何されても真顔%newline%必要個数:%chara_cost%,%chara_title%を1体購入してアンロック,,charaNum_8+1,,
9,    -2, 23800000,2, 2334780,     2,    -1,ぺんぎん|ヒーローぺんぎん|マント付きぺんぎん,Lv.%chara_have% Atk.%charaSpeed_9% %newline%倒す時には容赦がない%newline%必要個数:%chara_cost%,%chara_title%を1体購入してアンロック,,charaNum_9+1,,
10,   -2,143000000,2,14028300,     2,    -1,こあら|ヒーローこあら|マント付きこあら,Lv.%chara_have% Atk.%charaSpeed_10% %newline%やる気もないけど攻撃力はすごい%newline%必要個数:%chara_cost%,%chara_title%を1体購入してアンロック,,charaNum_10+1,,
11,   -2,943000000,2,92508300,     2,    -1,あらいぐま|ヒーローあらいぐま|マント付きあらいぐま,Lv.%chara_have% Atk.%charaSpeed_11% %newline%正義のためより敵を殺したいから殺す%newline%必要個数:%chara_cost%,%chara_title%を1体購入してアンロック,,charaNum_11+1,,
12,   -2,6840000000,2,671004000,     2,    -1,ねこ|ヒーローねこ|マント付きねこ,Lv.%chara_have% Atk.%charaSpeed_12% %newline%冷めている%newline%必要個数:%chara_cost%,%chara_title%を1体購入してアンロック,,charaNum_12+1,,
13,   -2,54700000000,2,5366070000,     2,    -1,りす|ヒーローりす|マント付きりす,Lv.%chara_have% Atk.%charaSpeed_13% %newline%やる気に満ちている%newline%必要個数:%chara_cost%,%chara_title%を1体購入してアンロック,,charaNum_13+1,,
14,   -2,820000000000,2,80442000000,     2,    -1,筋肉うさぎ|ヒーロー筋肉うさぎ|マント付き筋肉うさぎ,Lv.%chara_have% Atk.%charaSpeed_14% %newline%筋肉を強調する%newline%必要個数:%chara_cost%,%chara_title%を1体購入してアンロック,,charaNum_14+1,,
15,   -2,8200000000000,2,804420000000,     2,    -1,おしゃれねこ|ヒーローおしゃれねこ|マント付きおしゃれねこ,Lv.%chara_have% Atk.%charaSpeed_15% %newline%着飾るのが大好き%newline%必要個数:%chara_cost%,%chara_title%を1体購入してアンロック,,charaNum_15+1,,
16,   -2,164000000000000,2,16088400000000,     2,    -1,かんがるー|ヒーローかんがるー|マント付きかんがるー,Lv.%chara_have% Atk.%charaSpeed_16% %newline%みんなのお父さんポジ%newline%必要個数:%chara_cost%,%chara_title%を1体購入してアンロック,,charaNum_16+1,,
17,   -2,1640000000000000,2,160884000000000,     2,    -1,ヤンデレうさぎ|ヒーローヤンデレうさぎ|マント付きヤンデレうさぎ,Lv.%chara_have% Atk.%charaSpeed_17% %newline%敵のゾンビが殺したいくらい好き%newline%必要個数:%chara_cost%,%chara_title%を1体購入してアンロック,,charaNum_17+1,,
18,   -2,49200000000000000,2,4826520000000000,     2,    -1,おおかみ|ヒーローおおかみ|マント付きおおかみ,Lv.%chara_have% Atk.%charaSpeed_18% %newline%主人の命令で敵を倒しているだけ%newline%必要個数:%chara_cost%,%chara_title%を1体購入してアンロック,,charaNum_18+1,,
19,   -2,2460000000000000000,2,241326000000000000,     2,    -1,ロボット|ヒーローロボット|マント付きロボット,Lv.%chara_have% Atk.%charaSpeed_19% %newline%クローンとは別に量産されたロボット%newline%必要個数:%chara_cost%,%chara_title%を1体購入してアンロック,,charaNum_19+1,,
