0,0,1,4,9,10,15,20
0,-1,0,2,3,,,
-0.3,-1.5,1,3,,,,
0,-3,1,2,,,,
0.3,-0.3,0,5,,,,
1.5,0,6,8,,,,
1.8,-0.3,5,7,,,,
3,0,6,8,,,,
1.8,0.3,5,7,,,,
0.3,0.3,0,5,,,,
0,0.5,0,11,14,,,
0.3,1.3,10,12,,,,
0,1.5,10,11,13,14,,
0,3,14,12,,,,
-0.3,1.3,10,12,13,,,
-0.3,0.5,14,16,,,,
-0.8,0.3,15,17,,
-1.3,0.3,16,18,20,21
-3,0,17,19,,
-1.3,-0.5,18,20,,
-1,0,17,20,21,
-1.5,0,17,20,,
