0,0,1,4,9,20,10,5
0,-1,2,3,0,,,
-0.3,-1.5,1,3,,,,
0,-3,2,1,,,,
0.3,-0.3,0,5,,,,
1.5,0,4,8,6,9,0,
1.8,-0.3,7,5,,,,
3,0,8,6,,,,
1.8,0.3,5,7,,,,
0.3,0.3,0,5,,,,
0,0.5,0,11,12,14,,
0.3,1.3,10,12,,,,
0,1.5,10,11,14,13,,
0,3,12,14,,,,
-0.3,1.3,12,15,10,13,,
-0.3,0.5,14,16,,,,
-0.8,0.3,17,15,,
-1.3,0.3,21,16,18,20
-3,0,17,19,,
-1.3,-0.5,20,18,,
-1,0,0,19,17,21
-1.5,0,20,17,,
