-3,3,1,7,,
-3,0,0,2,3,5
-3,-3,1,10,,
-1.5,1.5,1,4,7,8
-1.5,0,3,5,6,19
-1.5,-1.5,1,4,9,10
-0.5,0.5,4,8,11,19
0,3,0,3,13,16
0,1.5,3,6,11,13
0,-1.5,5,12,15,19
0,-3,2,5,15,18
0.5,0.5,6,8,12,14
0.5,-0.5,11,14,9,19
1.5,1.5,7,8,14,17
1.5,0,11,12,13,15
1.5,-1.5,9,10,14,17
3,3,7,17,,
3,0,13,15,16,18
3,-3,10,17,,
-0.5,-0.5,4,6,9,12
