-3,0,1,3,,,,,
-2.5,-1.5,0,2,,,,,
-2.5,-0.5,1,4,,,,,
-2.5,0.5,0,4,,,,,
-2.3,0,2,3,5,6,,,
-2,-0.5,4,7,,,,,
-2,0.5,4,7,,,,,
-1.3,0,6,5,8,9,,,
-0.5,0.5,7,9,,,,,
0,0,7,8,10,15,16,21,25
-0.5,1,9,14,,,,,
-0.5,2.5,12,15,,,,,
-2,2.5,11,13,,,,,
0,3.5,12,14,,,,,
0,2,10,13,,,,,
0,1.5,9,11,,,,,
0.5,0.3,9,20,,
0.5,-2.5,18,20,,
2.3,1.8,17,19,,
2.8,1.8,18,20,,
3,0.5,17,19,,
3,0,9,25,,
0,-1,23,25,,
0,-2,22,24,,
-0.5,-3,23,25,,
-0.5,-1.5,9,21,22,24
