-3,1.5,1,5,,,
-3,0,0,6,,,
-3,-1.5,3,7,,,
-3,-3,2,8,,,
-1,3,9,10,,,
-1,1.5,0,6,,,
-1,0,1,5,10,12,
-1,-1.5,2,8,12,13,
-1,-3,3,7,,,
0,3,4,14,,,
0,1.5,4,6,11,14,16
0,0,10,12,,,
0,-1.5,6,7,11,16,17
0,-3,7,17,,,
1,3,9,10,,,
1,1.5,16,19,,,
1,0,10,12,20,15
1,-1.5,12,13,18,21
1,-3,17,22,,
3,1.5,15,20,,
3,0,16,19,,
3,-1.5,17,22,,
3,-3,18,21,,
